<define-tag pagetitle>DLA-3255-1 mplayer</define-tag>
<define-tag report_date>2022-12-31</define-tag>
<define-tag secrefs>CVE-2022-38850 CVE-2022-38851 CVE-2022-38855 CVE-2022-38858 CVE-2022-38860 CVE-2022-38861 CVE-2022-38863 CVE-2022-38864 CVE-2022-38865 CVE-2022-38866</define-tag>
<define-tag packages>mplayer</define-tag>
<define-tag isvulnerable>yes</define-tag>
<define-tag fixed>yes</define-tag>
<define-tag fixed-section>no</define-tag>

#use wml::debian::security

