<define-tag pagetitle>DLA-3108-1 pcs</define-tag>
<define-tag report_date>2022-09-15</define-tag>
<define-tag secrefs>CVE-2022-1049</define-tag>
<define-tag packages>pcs</define-tag>
<define-tag isvulnerable>yes</define-tag>
<define-tag fixed>yes</define-tag>
<define-tag fixed-section>no</define-tag>

#use wml::debian::security

