<define-tag pagetitle>DLA-3139-1 knot-resolver</define-tag>
<define-tag report_date>2022-10-07</define-tag>
<define-tag secrefs>CVE-2022-40188</define-tag>
<define-tag packages>knot-resolver</define-tag>
<define-tag isvulnerable>yes</define-tag>
<define-tag fixed>yes</define-tag>
<define-tag fixed-section>no</define-tag>

#use wml::debian::security
