<define-tag pagetitle>DSA-4857-1 bind9</define-tag>
<define-tag report_date>2021-2-18</define-tag>
<define-tag secrefs>CVE-2020-8625 Bug#983004</define-tag>
<define-tag packages>bind9</define-tag>
<define-tag isvulnerable>yes</define-tag>
<define-tag fixed>yes</define-tag>
<define-tag fixed-section>no</define-tag>

#use wml::debian::security



</dl>
