<define-tag pagetitle>DSA-4825-1 dovecot</define-tag>
<define-tag report_date>2021-1-04</define-tag>
<define-tag secrefs>CVE-2020-24386 CVE-2020-25275</define-tag>
<define-tag packages>dovecot</define-tag>
<define-tag isvulnerable>yes</define-tag>
<define-tag fixed>yes</define-tag>
<define-tag fixed-section>no</define-tag>

#use wml::debian::security



</dl>
