<define-tag pagetitle>DLA-2744-1 usermode</define-tag>
<define-tag report_date>2021-08-16</define-tag>
<define-tag secrefs>Bug#991808</define-tag>
<define-tag packages>usermode</define-tag>
<define-tag isvulnerable>yes</define-tag>
<define-tag fixed>yes</define-tag>
<define-tag fixed-section>no</define-tag>

#use wml::debian::security

