<define-tag pagetitle>DLA-2676-1 python-django</define-tag>
<define-tag report_date>2021-06-05</define-tag>
<define-tag secrefs>CVE-2021-33203 CVE-2021-33571</define-tag>
<define-tag packages>python-django</define-tag>
<define-tag isvulnerable>yes</define-tag>
<define-tag fixed>yes</define-tag>
<define-tag fixed-section>no</define-tag>

#use wml::debian::security
