<define-tag pagetitle>DLA-2827-1 bluez</define-tag>
<define-tag report_date>2021-11-27</define-tag>
<define-tag secrefs>CVE-2019-8921 CVE-2019-8922 CVE-2021-41229 Bug#1000262</define-tag>
<define-tag packages>bluez</define-tag>
<define-tag isvulnerable>yes</define-tag>
<define-tag fixed>yes</define-tag>
<define-tag fixed-section>no</define-tag>

#use wml::debian::security

