<define-tag pagetitle>DLA-2751-1 postgresql-9.6</define-tag>
<define-tag report_date>2021-08-31</define-tag>
<define-tag secrefs>CVE-2021-3449</define-tag>
<define-tag packages>postgresql-9.6</define-tag>
<define-tag isvulnerable>yes</define-tag>
<define-tag fixed>yes</define-tag>
<define-tag fixed-section>no</define-tag>

#use wml::debian::security

