<define-tag pagetitle>DLA-2594-1 tomcat8</define-tag>
<define-tag report_date>2021-03-16</define-tag>
<define-tag secrefs>CVE-2021-24122 CVE-2021-25122 CVE-2021-25329</define-tag>
<define-tag packages>tomcat8</define-tag>
<define-tag isvulnerable>yes</define-tag>
<define-tag fixed>yes</define-tag>
<define-tag fixed-section>no</define-tag>

#use wml::debian::security

