<define-tag pagetitle>DLA-2561-1 ruby-mechanize</define-tag>
<define-tag report_date>2021-02-17</define-tag>
<define-tag secrefs>CVE-2021-21289</define-tag>
<define-tag packages>ruby-mechanize</define-tag>
<define-tag isvulnerable>yes</define-tag>
<define-tag fixed>yes</define-tag>
<define-tag fixed-section>no</define-tag>

#use wml::debian::security

