<define-tag pagetitle>DLA-1139-1 imagemagick</define-tag>
<define-tag report_date>2017-10-19</define-tag>
<define-tag secrefs>CVE-2017-15277 CVE-2017-15281 Bug#878578 Bug#878579</define-tag>
<define-tag packages>imagemagick</define-tag>
<define-tag isvulnerable>yes</define-tag>
<define-tag fixed>yes</define-tag>
<define-tag fixed-section>no</define-tag>

#use wml::debian::security

