<define-tag pagetitle>DLA-975-1 wordpress</define-tag>
<define-tag report_date>2017-6-2</define-tag>
<define-tag secrefs>CVE-2017-8295 CVE-2017-9061 CVE-2017-9062 CVE-2017-9063 CVE-2017-9064 CVE-2017-9065 Bug#862053 Bug#862816</define-tag>
<define-tag packages>wordpress</define-tag>
<define-tag isvulnerable>yes</define-tag>
<define-tag fixed>yes</define-tag>
<define-tag fixed-section>no</define-tag>

#use wml::debian::security

