<define-tag pagetitle>DLA-939-1 qemu-kvm</define-tag>
<define-tag report_date>2017-5-11</define-tag>
<define-tag secrefs>CVE-2016-9603 CVE-2017-7718 CVE-2017-7980</define-tag>
<define-tag packages>qemu-kvm</define-tag>
<define-tag isvulnerable>yes</define-tag>
<define-tag fixed>yes</define-tag>
<define-tag fixed-section>no</define-tag>

#use wml::debian::security

