<define-tag pagetitle>DLA-1075-1 wordpress</define-tag>
<define-tag report_date>2017-8-29</define-tag>
<define-tag secrefs>CVE-2017-9066 Bug#862816</define-tag>
<define-tag packages>wordpress</define-tag>
<define-tag isvulnerable>yes</define-tag>
<define-tag fixed>yes</define-tag>
<define-tag fixed-section>no</define-tag>

#use wml::debian::security

