<define-tag pagetitle>DLA-3263-1 libtasn1-6</define-tag>
<define-tag report_date>2023-01-09</define-tag>
<define-tag secrefs>CVE-2021-46848</define-tag>
<define-tag packages>libtasn1-6</define-tag>
<define-tag isvulnerable>yes</define-tag>
<define-tag fixed>yes</define-tag>
<define-tag fixed-section>no</define-tag>

#use wml::debian::security
