<define-tag pagetitle>DLA-2324-1 linux-latest-4.19</define-tag>
<define-tag report_date>2020-08-12</define-tag>
<define-tag packages>linux-latest-4.19</define-tag>
<define-tag isvulnerable>no</define-tag>
<define-tag fixed>no</define-tag>
<define-tag fixed-section>no</define-tag>

#use wml::debian::security

