<define-tag pagetitle>DLA-2285-1 librsvg</define-tag>
<define-tag report_date>2020-07-22</define-tag>
<define-tag secrefs>CVE-2017-11464 CVE-2019-20446</define-tag>
<define-tag packages>librsvg</define-tag>
<define-tag isvulnerable>yes</define-tag>
<define-tag fixed>yes</define-tag>
<define-tag fixed-section>no</define-tag>

#use wml::debian::security

