<define-tag pagetitle>DLA-1553-1 clamav</define-tag>
<define-tag report_date>2018-10-24</define-tag>
<define-tag secrefs>CVE-2018-15378 Bug#910430</define-tag>
<define-tag packages>clamav</define-tag>
<define-tag isvulnerable>yes</define-tag>
<define-tag fixed>yes</define-tag>
<define-tag fixed-section>no</define-tag>

#use wml::debian::security

