<define-tag pagetitle>DLA-1308-1 firefox-esr</define-tag>
<define-tag report_date>2018-3-15</define-tag>
<define-tag secrefs>CVE-2018-5125 CVE-2018-5127 CVE-2018-5129 CVE-2018-5130 CVE-2018-5131 CVE-2018-5144 CVE-2018-5145</define-tag>
<define-tag packages>firefox-esr</define-tag>
<define-tag isvulnerable>yes</define-tag>
<define-tag fixed>yes</define-tag>
<define-tag fixed-section>no</define-tag>

#use wml::debian::security

