<define-tag pagetitle>DLA-1526-1 389-ds-base</define-tag>
<define-tag report_date>2018-9-29</define-tag>
<define-tag secrefs>CVE-2018-14624</define-tag>
<define-tag packages>389-ds-base</define-tag>
<define-tag isvulnerable>yes</define-tag>
<define-tag fixed>yes</define-tag>
<define-tag fixed-section>no</define-tag>

#use wml::debian::security

