<define-tag pagetitle>DLA-1335-1 zsh</define-tag>
<define-tag report_date>2018-3-31</define-tag>
<define-tag secrefs>CVE-2018-1071 CVE-2018-1083 Bug#894044 Bug#894043</define-tag>
<define-tag packages>zsh</define-tag>
<define-tag isvulnerable>yes</define-tag>
<define-tag fixed>yes</define-tag>
<define-tag fixed-section>no</define-tag>

#use wml::debian::security

