<define-tag pagetitle>DLA-1595-1 gnuplot5</define-tag>
<define-tag report_date>2018-11-25</define-tag>
<define-tag secrefs>CVE-2018-19490 CVE-2018-19491 CVE-2018-19492</define-tag>
<define-tag packages>gnuplot5</define-tag>
<define-tag isvulnerable>yes</define-tag>
<define-tag fixed>yes</define-tag>
<define-tag fixed-section>no</define-tag>

#use wml::debian::security

