<define-tag pagetitle>DLA-1537-1 php-horde-kronolith</define-tag>
<define-tag report_date>2018-10-7</define-tag>
<define-tag secrefs>CVE-2017-16906 Bug#909737</define-tag>
<define-tag packages>php-horde-kronolith</define-tag>
<define-tag isvulnerable>yes</define-tag>
<define-tag fixed>yes</define-tag>
<define-tag fixed-section>no</define-tag>

#use wml::debian::security

