<define-tag pagetitle>DSA-4464-1 thunderbird</define-tag>
<define-tag report_date>2019-6-15</define-tag>
<define-tag secrefs>CVE-2019-11703 CVE-2019-11704 CVE-2019-11705 CVE-2019-11706</define-tag>
<define-tag packages>thunderbird</define-tag>
<define-tag isvulnerable>yes</define-tag>
<define-tag fixed>yes</define-tag>
<define-tag fixed-section>no</define-tag>

#use wml::debian::security



</dl>
