<define-tag pagetitle>DSA-5225-1 chromium</define-tag>
<define-tag report_date>2022-9-06</define-tag>
<define-tag secrefs>CVE-2022-3075 Bug#1018937</define-tag>
<define-tag packages>chromium</define-tag>
<define-tag isvulnerable>yes</define-tag>
<define-tag fixed>yes</define-tag>
<define-tag fixed-section>no</define-tag>

#use wml::debian::security



</dl>
