<define-tag pagetitle>DSA-5269-1 pypy3</define-tag>
<define-tag report_date>2022-11-02</define-tag>
<define-tag secrefs>CVE-2022-37454</define-tag>
<define-tag packages>pypy3</define-tag>
<define-tag isvulnerable>yes</define-tag>
<define-tag fixed>yes</define-tag>
<define-tag fixed-section>no</define-tag>

#use wml::debian::security



</dl>
