<define-tag pagetitle>DLA-1754-1 samba</define-tag>
<define-tag report_date>2019-04-09</define-tag>
<define-tag secrefs>CVE-2017-9461 CVE-2018-1050 CVE-2018-1057 CVE-2019-3880</define-tag>
<define-tag packages>samba</define-tag>
<define-tag isvulnerable>yes</define-tag>
<define-tag fixed>yes</define-tag>
<define-tag fixed-section>no</define-tag>

#use wml::debian::security

