<define-tag pagetitle>DLA-1823-1 linux</define-tag>
<define-tag report_date>2019-06-17</define-tag>
<define-tag secrefs>CVE-2019-3846 CVE-2019-5489 CVE-2019-10126 CVE-2019-11477 CVE-2019-11478 CVE-2019-11479 CVE-2019-11810 CVE-2019-11833 CVE-2019-11884</define-tag>
<define-tag packages>linux</define-tag>
<define-tag isvulnerable>yes</define-tag>
<define-tag fixed>yes</define-tag>
<define-tag fixed-section>no</define-tag>

#use wml::debian::security

