<define-tag pagetitle>DLA-1714-1 libsdl2</define-tag>
<define-tag report_date>2019-3-13</define-tag>
<define-tag secrefs>CVE-2019-7572 CVE-2019-7573 CVE-2019-7574 CVE-2019-7575 CVE-2019-7576 CVE-2019-7577 CVE-2019-7578 CVE-2019-7635 CVE-2019-7636 CVE-2019-7637 CVE-2019-7638</define-tag>
<define-tag packages>libsdl2</define-tag>
<define-tag isvulnerable>yes</define-tag>
<define-tag fixed>yes</define-tag>
<define-tag fixed-section>no</define-tag>

#use wml::debian::security

